…
library(tidyverse)
library(vroom)
library(sf)
library(tigris)
library(tidycensus)
library(tidygraph)
library(ggraph)

The first step is to read in the geographies crosswalk:

geo_crosswalk <- vroom("data/pa_xwalk.csv.gz", col_types = cols(.default = "c"))

geo_crosswalk

## # A tibble: 421,545 x 43
##    tabblk2010 st    stusps stname cty   ctyname trct  trctname bgrp  bgrpname
##    <chr>      <chr> <chr>  <chr>  <chr> <chr>   <chr> <chr>    <chr> <chr>   
##  1 420010301… 42    PA     Penns… 42001 Adams … 4200… 301.01 … 4200… 1 (Trac…
##  2 420010301… 42    PA     Penns… 42001 Adams … 4200… 301.01 … 4200… 1 (Trac…
##  3 420010301… 42    PA     Penns… 42001 Adams … 4200… 301.01 … 4200… 1 (Trac…
##  4 420010301… 42    PA     Penns… 42001 Adams … 4200… 301.01 … 4200… 1 (Trac…
##  5 420010301… 42    PA     Penns… 42001 Adams … 4200… 301.01 … 4200… 1 (Trac…
##  6 420010301… 42    PA     Penns… 42001 Adams … 4200… 301.01 … 4200… 1 (Trac…
##  7 420010301… 42    PA     Penns… 42001 Adams … 4200… 301.01 … 4200… 1 (Trac…
##  8 420010301… 42    PA     Penns… 42001 Adams … 4200… 301.01 … 4200… 1 (Trac…
##  9 420010301… 42    PA     Penns… 42001 Adams … 4200… 301.01 … 4200… 1 (Trac…
## 10 420010301… 42    PA     Penns… 42001 Adams … 4200… 301.01 … 4200… 1 (Trac…
## # … with 421,535 more rows, and 33 more variables: cbsa <chr>, cbsaname <chr>,
## #   zcta <chr>, zctaname <chr>, stplc <chr>, stplcname <chr>, ctycsub <chr>,
## #   ctycsubname <chr>, stcd115 <chr>, stcd115name <chr>, stsldl <chr>,
## #   stsldlname <chr>, stsldu <chr>, stslduname <chr>, stschool <chr>,
## #   stschoolname <chr>, stsecon <chr>, stseconname <chr>, trib <chr>,
## #   tribname <chr>, tsub <chr>, tsubname <chr>, stanrc <chr>, stanrcname <chr>,
## #   necta <chr>, nectaname <chr>, mil <chr>, milname <chr>, stwib <chr>,
## #   stwibname <chr>, blklatdd <chr>, blklondd <chr>, createdate <chr>
…
allegheny_tracts <- get_decennial(geography = "tract",
                           variables = c(total_pop = "P001001"),
                           state = "PA",
                           county = "Allegheny County",
                           geometry = TRUE,
                           output = "wide")

allegheny_tracts

## Simple feature collection with 402 features and 3 fields
## geometry type:  MULTIPOLYGON
## dimension:      XY
## bbox:           xmin: -80 ymin: 40 xmax: -80 ymax: 41
## geographic CRS: NAD83
## # A tibble: 402 x 4
##    GEOID   NAME                total_pop                                geometry
##    <chr>   <chr>                   <dbl>                      <MULTIPOLYGON [°]>
##  1 420034… Census Tract 4120.…      4865 (((-80 41, -80 41, -80 41, -80 41, -80…
##  2 420034… Census Tract 4131,…      6609 (((-80 41, -80 41, -80 41, -80 41, -80…
##  3 420034… Census Tract 4133,…      4742 (((-80 41, -80 41, -80 41, -80 41, -80…
##  4 420034… Census Tract 4160,…      1636 (((-80 41, -80 41, -80 41, -80 41, -80…
##  5 420034… Census Tract 4172,…      1260 (((-80 41, -80 41, -80 41, -80 41, -80…
##  6 420034… Census Tract 4230,…      2801 (((-80 40, -80 40, -80 40, -80 40, -80…
##  7 420034… Census Tract 4268,…      5369 (((-80 41, -80 41, -80 41, -80 41, -80…
##  8 420034… Census Tract 4281,…      1242 (((-80 40, -80 40, -80 40, -80 40, -80…
##  9 420034… Census Tract 4295,…      4212 (((-80 41, -80 41, -80 41, -80 41, -80…
## 10 420034… Census Tract 4311,…      3380 (((-80 40, -80 40, -80 40, -80 40, -80…
## # … with 392 more rows
…
Next I read in the main LODES data. This is a big file, so it takes a moment.

df <- vroom("data/pa_od_main_JT00_2017.csv.gz", col_types = cols(.default = "c")) %>% 
  mutate(S000 = as.numeric(S000)) %>% 
  select(h_geocode, w_geocode, S000)

df

## # A tibble: 5,034,208 x 3
##    h_geocode       w_geocode        S000
##    <chr>           <chr>           <dbl>
##  1 420010301022005 420010301011003     1
##  2 420010303002001 420010301011003     1
##  3 420010301023038 420010301011012     1
##  4 420010314011078 420010301011012     1
##  5 420010301011027 420010301011016     1
##  6 420010301011033 420010301011016     1
##  7 420010301011038 420010301011016     1
##  8 420010301011116 420010301011016     1
##  9 420010301011123 420010301011016     1
## 10 420010302001018 420010301011016     1
## # … with 5,034,198 more rows
…
Here I set a manual layout for the ggraph object. I use the centroids of the census tracts as the nodes in the network graph.

node_pos <- allegheny_tracts_centroids

manual_layout <- create_layout(graph = g,
                               layout = node_pos)

manual_layout %>% 
  as_tibble()

## # A tibble: 402 x 7
##    GEOID           x     y name        .ggraph.orig_index .ggraph.index circular
##    <chr>       <dbl> <dbl> <chr>                    <int>         <int> <lgl>   
##  1 42003010300 -80.0  40.4 42003020100                  1             1 FALSE   
##  2 42003020100 -80.0  40.4 42003409000                  2             2 FALSE   
##  3 42003020300 -80.0  40.5 42003191800                  3             3 FALSE   
##  4 42003030500 -80.0  40.4 42003412001                  4             4 FALSE   
##  5 42003040200 -80.0  40.4 42003452000                  5             5 FALSE   
##  6 42003040400 -79.9  40.4 42003411000                  6             6 FALSE   
##  7 42003040500 -80.0  40.4 42003456003                  7             7 FALSE   
##  8 42003040600 -80.0  40.4 42003191700                  8             8 FALSE   
##  9 42003040900 -80.0  40.4 42003413100                  9             9 FALSE   
## 10 42003050100 -80.0  40.4 42003426300                 10            10 FALSE   
## # … with 392 more rows
…
df_nodes <- g %>% 
  activate(nodes) %>% 
  as_tibble() %>% 
  mutate(id = row_number())

The df_lines is pivoted long so there is a “to” and “from” row for each commuter line:

df_lines <- df_edges %>% 
  mutate(line_id = row_number()) %>% 
  pivot_longer(c(from, to), names_to = "point_type", values_to = "edge_id")

df_lines

## # A tibble: 5,956 x 4
##    commuters line_id point_type edge_id
##        <dbl>   <int> <chr>        <int>
##  1       721       1 from             1
##  2       721       1 to               1
##  3       619       2 from             2
##  4       619       2 to               1
##  5       488       3 from             2
##  6       488       3 to               2
##  7       487       4 from             3
##  8       487       4 to               1
##  9       442       5 from             4
## 10       442       5 to               1
## # … with 5,946 more rows
…
Since some commuter “lines” are really just points that start and end at the same centroid, I separate the commuter “lines” from the “points” for purposes of manipulating the geometries.

df_line_types <- df_lines %>% 
  pivot_wider(names_from = point_type, values_from = edge_id) %>% 
  mutate(line_type = case_when(from == to ~ "point",
                               from != to ~ "linestring")) %>% 
  pivot_longer(cols = c(from, to), names_to = "edge_type", values_to = "edge_id")

df_line_types

## # A tibble: 5,956 x 5
##    commuters line_id line_type  edge_type edge_id
##        <dbl>   <int> <chr>      <chr>       <int>
##  1       721       1 point      from            1
##  2       721       1 point      to              1
##  3       619       2 linestring from            2
##  4       619       2 linestring to              1
##  5       488       3 point      from            2
##  6       488       3 point      to              2
##  7       487       4 linestring from            3
##  8       487       4 linestring to              1
##  9       442       5 linestring from            4
## 10       442       5 linestring to              1
## # … with 5,946 more rows
…
It is always reassuring when your analysis doesn’t stray to far from conventional wisdom. Very few Pittsburghers in the dataset cross two rivers to get to work, and none cross three.

Mapping commuter patterns

The next step is to put this data on a map, since it is obviously spatial. The goal is to calculate the percentage of each census tract’s “from” commuters that crossed zero, one, two, and 3 rivers.

This prepares the edge data to be used to make a chloropleth map:

df_lines_chloro <- df_edges %>% 
  mutate(line_id = row_number()) %>% 
  pivot_longer(c(from, to), names_to = "point_type", values_to = "edge_id")

df_lines_chloro

## # A tibble: 5,956 x 4
##    commuters line_id point_type edge_id
##        <dbl>   <int> <chr>        <int>
##  1       721       1 from             1
##  2       721       1 to               1
##  3       619       2 from             2
##  4       619       2 to               1
##  5       488       3 from             2
##  6       488       3 to               2
##  7       487       4 from             3
##  8       487       4 to               1
##  9       442       5 from             4
## 10       442       5 to               1
## # … with 5,946 more rows
…
# df_combined %>%
#     filter(is.na(from))
# 
# df_combined %>%
#    summarize(commuters = sum(commuters))
#184404 total commuters

df_combined <- df_combined %>% 
  arrange(from, desc(count_rivers_intersected), desc(commuters))

These are the final steps to create the chloropleth:

df_combined

## # A tibble: 2,978 x 4
##    line_id from        commuters count_rivers_intersected
##      <int> <chr>           <dbl>                    <dbl>
##  1     747 42003010300        63                        0
##  2    2194 42003020100        31                        2
##  3    1371 42003020100        42                        1
##  4    2290 42003020100        30                        1
##  5       1 42003020100       721                        0
##  6     630 42003020100        70                        0
##  7     730 42003020100        64                        0
##  8    1102 42003020100        49                        0
##  9    1629 42003020100        38                        0
## 10     349 42003020300       112                        0
## # … with 2,968 more rows

This counts the number of commuters per “from” tract and “count of rivers intersected”. Note that there are multiple rows per “from” tract.

df_chloro_map <- df_combined %>%
  ungroup() %>% 
  group_by(from, count_rivers_intersected) %>% 
  summarize(total_commuters = sum(commuters)) %>% 
  ungroup()

df_chloro_map

## # A tibble: 722 x 3
##    from        count_rivers_intersected total_commuters
##    <chr>                          <dbl>           <dbl>
##  1 42003010300                        0              63
##  2 42003020100                        0             942
##  3 42003020100                        1              72
##  4 42003020100                        2              31
##  5 42003020300                        0             257
##  6 42003030500                        0             231
##  7 42003040200                        0             143
##  8 42003040400                        0             108
##  9 42003040500                        0              87
## 10 42003040600                        0              59
## # … with 712 more rows
…
The next step is to calculate the percent of a “from” tract’s commuters that crossed a given number of rivers:

df_chloro_map <- df_chloro_map %>% 
  group_by(from) %>% 
  mutate(pct_of_commuters = total_commuters / sum(total_commuters)) %>% 
  ungroup()

df_chloro_map

## # A tibble: 722 x 4
##    from        count_rivers_intersected total_commuters pct_of_commuters
##    <chr>                          <dbl>           <dbl>            <dbl>
##  1 42003010300                        0              63           1     
##  2 42003020100                        0             942           0.901 
##  3 42003020100                        1              72           0.0689
##  4 42003020100                        2              31           0.0297
##  5 42003020300                        0             257           1     
##  6 42003030500                        0             231           1     
##  7 42003040200                        0             143           1     
##  8 42003040400                        0             108           1     
##  9 42003040500                        0              87           1     
## 10 42003040600                        0              59           1     
## # … with 712 more rows
…
