…
theme_set(theme_bw())

census_vars <- load_variables(2010, "sf1", cache = TRUE)

Collect data

tidycensus provides a wrapper for the U.S. Census API. You can request a wide variety of data, from economic measures to information about demography. The API also includes data about geographic regions.

This code creates a dataframe of some of the variables available through the census API.

vars <- load_variables(2016, "acs5", cache = TRUE)

vars

## # A tibble: 22,815 x 3
##    name       label                           concept                           
##    <chr>      <chr>                           <chr>                             
##  1 B00001_001 Estimate!!Total                 UNWEIGHTED SAMPLE COUNT OF THE PO…
##  2 B00002_001 Estimate!!Total                 UNWEIGHTED SAMPLE HOUSING UNITS   
##  3 B01001_001 Estimate!!Total                 SEX BY AGE                        
##  4 B01001_002 Estimate!!Total!!Male           SEX BY AGE                        
##  5 B01001_003 Estimate!!Total!!Male!!Under 5… SEX BY AGE                        
##  6 B01001_004 Estimate!!Total!!Male!!5 to 9 … SEX BY AGE                        
##  7 B01001_005 Estimate!!Total!!Male!!10 to 1… SEX BY AGE                        
##  8 B01001_006 Estimate!!Total!!Male!!15 to 1… SEX BY AGE                        
##  9 B01001_007 Estimate!!Total!!Male!!18 and … SEX BY AGE                        
## 10 B01001_008 Estimate!!Total!!Male!!20 years SEX BY AGE                        
## # … with 22,805 more rows
…
