…
There are 60 distinct parking zones in the dataset.

data %>% 
  distinct(zone) %>% 
  arrange(zone)

## # A tibble: 60 x 1
##    zone                       
##    <chr>                      
##  1 301 - Sheridan Harvard Lot 
##  2 302 - Sheridan Kirkwood Lot
##  3 304 - Tamello Beatty Lot   
##  4 307 - Eva Beatty Lot       
##  5 308 - Harvard Beatty Lot   
##  6 311 - Ansley Beatty Lot    
##  7 314 - Penn Circle NW Lot   
##  8 321 - Beacon Bartlett Lot  
##  9 322 - Forbes Shady Lot     
## 10 323 - Douglas Phillips Lot 
## # … with 50 more rows
…
Neighborhood-level analysis

Next I perform the same analysis at the neighborhood level to see if any areas in the city were particularly affected. I manually aggregated the parking zones up to the neighborhood level. This code reads in that data.

geocoded_parking_locations <- read_csv("data/geocoded_parking_locations.csv")

geocoded_parking_locations %>%
  arrange(zone_region, zone)

## # A tibble: 60 x 2
##    zone                            zone_region
##    <chr>                           <chr>      
##  1 354 - Walter/Warrington Lot     Allentown  
##  2 355 - Asteroid Warrington Lot   Allentown  
##  3 417 - Allentown                 Allentown  
##  4 363 - Beechview Lot             Beechview  
##  5 418 - Beechview                 Beechview  
##  6 334 - Taylor Street Lot         Bloomfield 
##  7 335 - Friendship Cedarville Lot Bloomfield 
##  8 406 - Bloomfield (On-street)    Bloomfield 
##  9 361 - Brookline Lot             Brookline  
## 10 419 - Brookline                 Brookline  
## # … with 50 more rows
…
