…
#download data from JHU
vacc_data_raw <- read_csv("https://raw.githubusercontent.com/govex/COVID-19/master/data_tables/vaccine_data/us_data/time_series/vaccine_data_us_timeline.csv") %>% 
  clean_names() %>% 
  #filter to only keep vaccine type All, which will show the cumulative sum of doses for all vaccine types
  filter(vaccine_type == "All") %>% 
  #select state, date, vaccine type, and stage one doses
  select(province_state, date, stage_one_doses) %>% 
  #for each state, pad the time series to include all the dates in date_seq
  complete(date = date_seq, province_state) %>% 
  #sort by state and date
  arrange(province_state, date)

vacc_data_raw

## # A tibble: 39,585 x 3
##    date       province_state stage_one_doses
##    <date>     <chr>                    <dbl>
##  1 2020-12-01 Alabama                     NA
##  2 2020-12-02 Alabama                     NA
##  3 2020-12-03 Alabama                     NA
##  4 2020-12-04 Alabama                     NA
##  5 2020-12-05 Alabama                     NA
##  6 2020-12-06 Alabama                     NA
##  7 2020-12-07 Alabama                     NA
##  8 2020-12-08 Alabama                     NA
##  9 2020-12-09 Alabama                     NA
## 10 2020-12-10 Alabama                     NA
## # … with 39,575 more rows
…
vaccine_forecast_data

## # A tibble: 1,481 x 11
##    last_date  date       stage_one_doses stage_one_doses_n… stage_one_doses_new…
##    <date>     <date>               <dbl>              <dbl>                <dbl>
##  1 2021-02-01 2020-12-01               0                 NA                   NA
##  2 2021-02-01 2020-12-02               0                  0                   NA
##  3 2021-02-01 2020-12-03               0                  0                   NA
##  4 2021-02-01 2020-12-04               0                  0                   NA
##  5 2021-02-01 2020-12-05               0                  0                   NA
##  6 2021-02-01 2020-12-06               0                  0                   NA
##  7 2021-02-01 2020-12-07               0                  0                   NA
##  8 2021-02-01 2020-12-08               0                  0                    0
##  9 2021-02-01 2020-12-09               0                  0                    0
## 10 2021-02-01 2020-12-10               0                  0                    0
## # … with 1,471 more rows, and 6 more variables: current_week <lgl>,
## #   prediction_flag <lgl>, future_flag <lgl>,
## #   stage_one_doses_new_rolling_forecast <dbl>, total_pop <dbl>, vacc_pct <dbl>
…
<img src="{{< blogdown/postref >}}index_files/figure-html/unnamed-chunk-23-1.png" width="672" />

This shows that most of the inconsistent data comes from federal agencies, US territories, and Freely Associated States

vacc_data_raw %>% 
  group_by(province_state) %>% 
  mutate(less_than_prev = stage_one_doses < lag(stage_one_doses, 1)) %>% 
  ungroup() %>% 
  filter(less_than_prev == T) %>% 
  count(province_state, less_than_prev, sort = T) 

## # A tibble: 59 x 3
##    province_state                 less_than_prev     n
##    <chr>                          <lgl>          <int>
##  1 Bureau of Prisons              TRUE              21
##  2 Republic of Palau              TRUE              14
##  3 Veterans Health Administration TRUE              10
##  4 West Virginia                  TRUE              10
##  5 Federated States of Micronesia TRUE               9
##  6 Guam                           TRUE               9
##  7 Department of Defense          TRUE               7
##  8 Maine                          TRUE               6
##  9 Marshall Islands               TRUE               6
## 10 Rhode Island                   TRUE               6
## # … with 49 more rows
…
