…
Many of the FIPS codes from the source data dropped leading zeroes, which makes them unuseable for joining with Census data. This code adds the leading zeroes back.

#clean fips data
states_with_bad_fips <- str_to_title(c("ALABAMA", "ALASKA", "ARIZONA", 
                                      "ARKANSAS", "CALIFORNIA",
                                      "COLORADO", "CONNECTICUT"))
data %>% 
  filter(state %in% states_with_bad_fips) %>% 
  mutate(fips = paste0("0", fips_raw)) %>% 
  distinct(fips_raw, fips)

## # A tibble: 328 x 2
##    fips_raw fips 
##    <chr>    <chr>
##  1 1001     01001
##  2 1003     01003
##  3 1005     01005
##  4 1007     01007
##  5 1009     01009
##  6 1011     01011
##  7 1013     01013
##  8 1015     01015
##  9 1017     01017
## 10 1019     01019
## # … with 318 more rows
…
