…
The core of the above code is combining map2 and mb_directions_possibly. This maps the mb_directions_possibly function against two inputs (the home address and work address).

The result is a dataframe with a row per turn-by-turn direction for each commuter route.

tract_od_directions %>% 
  select(h_tract, w_tract, instructions, distance, duration, commuters) %>% 
  st_drop_geometry() %>% 
  as_tibble()

## # A tibble: 8,450 x 6
##    h_tract   w_tract  instructions                   distance duration commuters
##    <chr>     <chr>    <chr>                             <dbl>    <dbl>     <dbl>
##  1 42003409… 4200302… Drive west.                      0.0339    0.264       619
##  2 42003409… 4200302… Turn left.                       0.173     0.965       619
##  3 42003409… 4200302… Turn right onto Wexford Road/…   8.50     10.7         619
##  4 42003409… 4200302… Turn left to take the PA 910 …   0.636     0.949       619
##  5 42003409… 4200302… Merge left onto I 79 South.      2.44      1.62        619
##  6 42003409… 4200302… Keep left to take I 279 South…  18.2      10.9         619
##  7 42003409… 4200302… Keep right to take I 579 Sout…   1.55      1.14        619
##  8 42003409… 4200302… Take the exit toward 6th Aven…   0.571     0.408       619
##  9 42003409… 4200302… Keep left toward 6th Avenue.     0.154     0.159       619
## 10 42003409… 4200302… Merge left onto Bigelow Boule…   0.068     0.231       619
## # … with 8,440 more rows
…
