…
Next, summarize the data by year and month, and convert the data into a time series tsibble.

#create basic tsibble
pothole_df <- pothole_data |> 
  group_by(created_yearmonth, request_type) |> 
  summarize(report_count = n()) |> 
  ungroup() |>
  as_tsibble()

pothole_df

## # A tsibble: 93 x 3 [1M]
##    created_yearmonth request_type report_count
##                <mth> <chr>               <int>
##  1          2015 Apr Potholes              906
##  2          2015 May Potholes             1493
##  3          2015 Jun Potholes             1236
##  4          2015 Jul Potholes             1288
##  5          2015 Aug Potholes              734
##  6          2015 Sep Potholes              526
##  7          2015 Oct Potholes              516
##  8          2015 Nov Potholes              890
##  9          2015 Dec Potholes              309
## 10          2016 Jan Potholes              222
## # ℹ 83 more rows
…
gg_subseries(pothole_df) +
  facet_wrap(vars(month(created_yearmonth)))

<img src="{{< blogdown/postref >}}index.en_files/figure-html/unnamed-chunk-6-1.png" width="672" />

Decomposing a time series into components (trend, seasonality, remainder) gives a more detailed view into how the series behaves.

dcmp <- pothole_df |>
  model(stl = STL(report_count, robust = TRUE))

dcmp_components <- components(dcmp)

dcmp_components

## # A dable: 93 x 7 [1M]
## # Key:     .model [1]
## # :        report_count = trend + season_year + remainder
##    .model created_yearmonth report_count trend season_year remainder
##    <chr>              <mth>        <int> <dbl>       <dbl>     <dbl>
##  1 stl             2015 Apr          906 1179.        369.   -641.  
##  2 stl             2015 May         1493 1128.        353.     11.9 
##  3 stl             2015 Jun         1236 1077.        123.     36.7 
##  4 stl             2015 Jul         1288 1026.        117.    145.  
##  5 stl             2015 Aug          734  978.       -160.    -83.1 
##  6 stl             2015 Sep          526  929.       -353.    -50.7 
##  7 stl             2015 Oct          516  881.       -374.      8.42
##  8 stl             2015 Nov          890  836.       -480.    534.  
##  9 stl             2015 Dec          309  791.       -503.     21.5 
## 10 stl             2016 Jan          222  746.       -402.   -122.  
## # ℹ 83 more rows
## # ℹ 1 more variable: season_adjust <dbl>
…
I transform the data with log() and add 1 to the result to guarantee that the forecasts are positive. This is necessary because many of the observations are close to zero, and the models would not know otherwise that the count of pothole complaints cannot be negative. {fable} automatically back-transforms the forecast onto the original scale of the data.

model_df <- data_train |> 
    model(arima = ARIMA(log(report_count + 1)),
          ets = ETS(log(report_count + 1)),
          lm_seasonal = TSLM(log(report_count + 1) ~ trend() + season()))

The forecast() function returns the full (transformed) distribution of the forecast and the mean of that distribution.

pothole_fc <- model_df |> 
  forecast(data_test)

pothole_fc

## # A fable: 54 x 5 [1M]
## # Key:     .model [3]
##    .model created_yearmonth    report_count .mean request_type
##    <chr>              <mth>          <dist> <dbl> <chr>       
##  1 arima           2021 Jul t(N(5.4, 0.25)) 237.  Potholes    
##  2 arima           2021 Aug t(N(5.1, 0.32)) 195.  Potholes    
##  3 arima           2021 Sep t(N(4.9, 0.34)) 151.  Potholes    
##  4 arima           2021 Oct t(N(4.9, 0.36)) 162.  Potholes    
##  5 arima           2021 Nov t(N(4.4, 0.38))  98.0 Potholes    
##  6 arima           2021 Dec t(N(4.2, 0.41))  77.0 Potholes    
##  7 arima           2022 Jan t(N(4.7, 0.43)) 129.  Potholes    
##  8 arima           2022 Feb t(N(5.6, 0.45)) 335.  Potholes    
##  9 arima           2022 Mar t(N(5.8, 0.47)) 423.  Potholes    
## 10 arima           2022 Apr t(N(6.4, 0.49)) 764.  Potholes    
## # ℹ 44 more rows
…
<img src="{{< blogdown/postref >}}index.en_files/figure-html/unnamed-chunk-17-1.png" width="672" />

Cross-validation approach

Cross-validation is the more robust way to measure the accuracy of a model. Instead of splitting the data into train/test sets, I create multiple subsets of the data with increasing origin points. This code creates the CV set by starting with the first 36 observations and adding 1 observation at a time to the rolling origin.

pothole_cv <- stretch_tsibble(pothole_df, .step = 1, .init = 36) |> 
  relocate(created_yearmonth, .id)

pothole_cv

## # A tsibble: 3,741 x 4 [1M]
## # Key:       .id [58]
##    created_yearmonth   .id request_type report_count
##                <mth> <int> <chr>               <int>
##  1          2015 Apr     1 Potholes              906
##  2          2015 May     1 Potholes             1493
##  3          2015 Jun     1 Potholes             1236
##  4          2015 Jul     1 Potholes             1288
##  5          2015 Aug     1 Potholes              734
##  6          2015 Sep     1 Potholes              526
##  7          2015 Oct     1 Potholes              516
##  8          2015 Nov     1 Potholes              890
##  9          2015 Dec     1 Potholes              309
## 10          2016 Jan     1 Potholes              222
## # ℹ 3,731 more rows

Each CV .id contains one more observation than the previous .id.

pothole_cv |> 
  count(.id)

## # A tibble: 58 × 2
##      .id     n
##    <int> <int>
##  1     1    36
##  2     2    37
##  3     3    38
##  4     4    39
##  5     5    40
##  6     6    41
##  7     7    42
##  8     8    43
##  9     9    44
## 10    10    45
## # ℹ 48 more rows

This code refits the models against the cross-validation set. The {fable} package automatically finds the appropriate model parameters for ARIMA and ETS models. Since each .id has a different subset of the data, the model parameters can be different for each .id.

models_cv <- pothole_cv |> 
    model(arima = ARIMA(log(report_count + 1)),
          ets = ETS(log(report_count + 1)),
          lm_seasonal = TSLM(log(report_count + 1) ~ trend() + season()))

models_cv

## # A mable: 58 x 4
## # Key:     .id [58]
##      .id                     arima          ets lm_seasonal
##    <int>                   <model>      <model>     <model>
##  1     1 <ARIMA(0,0,1)(0,1,0)[12]> <ETS(A,N,N)>      <TSLM>
##  2     2 <ARIMA(0,1,1)(0,1,0)[12]> <ETS(A,N,N)>      <TSLM>
##  3     3 <ARIMA(0,1,1)(0,1,0)[12]> <ETS(A,N,N)>      <TSLM>
##  4     4 <ARIMA(0,1,1)(0,1,0)[12]> <ETS(A,N,N)>      <TSLM>
##  5     5 <ARIMA(0,1,1)(0,1,0)[12]> <ETS(A,N,N)>      <TSLM>
##  6     6 <ARIMA(0,1,1)(0,1,0)[12]> <ETS(A,N,N)>      <TSLM>
##  7     7 <ARIMA(0,1,1)(1,1,0)[12]> <ETS(A,N,N)>      <TSLM>
##  8     8 <ARIMA(0,1,1)(1,1,0)[12]> <ETS(A,N,N)>      <TSLM>
##  9     9 <ARIMA(0,1,1)(1,1,0)[12]> <ETS(A,N,N)>      <TSLM>
## 10    10 <ARIMA(0,1,1)(0,1,0)[12]> <ETS(A,N,N)>      <TSLM>
## # ℹ 48 more rows

Next we forecast for each model and .id with a 12 month horizon.

forecast_cv <- models_cv |> 
    forecast(h = 12)

forecast_cv

## # A fable: 2,088 x 5 [1M]
## # Key:     .id, .model [174]
##      .id .model created_yearmonth    report_count .mean
##    <int> <chr>              <mth>          <dist> <dbl>
##  1     1 arima           2018 Apr  t(N(6.7, 0.4))  955.
##  2     1 arima           2018 May   t(N(7, 0.47)) 1347.
##  3     1 arima           2018 Jun t(N(6.8, 0.47)) 1089.
##  4     1 arima           2018 Jul t(N(6.7, 0.47))  991.
##  5     1 arima           2018 Aug t(N(6.4, 0.47))  767.
##  6     1 arima           2018 Sep t(N(5.9, 0.47))  457.
##  7     1 arima           2018 Oct t(N(5.6, 0.47))  344.
##  8     1 arima           2018 Nov t(N(5.3, 0.47))  256.
##  9     1 arima           2018 Dec t(N(4.9, 0.47))  162.
## 10     1 arima           2019 Jan t(N(7.6, 0.47)) 2469.
## # ℹ 2,078 more rows
…
