…
glimpse(fred_slide)

## Rows: 102,120
## Columns: 4
## Key: .id, series [1,702]
## $ series             <chr> "men", "men", "men", "men", "men", "men", "men", "m…
## $ date               <mth> 1948 Jan, 1948 Feb, 1948 Mar, 1948 Apr, 1948 May, 1…
## $ participation_rate <dbl> 85.2, 85.5, 85.5, 86.0, 85.7, 87.8, 88.7, 88.5, 86.…
## $ .id                <int> 1, 1, 1, 1, 1, 1, 1, 1, 1, 1, 1, 1, 1, 1, 1, 1, 1, …

fred_slide |> 
  count(series, .id)

## # A tibble: 1,702 × 3
##    series   .id     n
##    <chr>  <int> <int>
##  1 men        1    60
##  2 men        2    60
##  3 men        3    60
##  4 men        4    60
##  5 men        5    60
##  6 men        6    60
##  7 men        7    60
##  8 men        8    60
##  9 men        9    60
## 10 men       10    60
## # ℹ 1,692 more rows
…
