…
{ggmap}

Uses Google Maps API to get basemaps.
The API now requires a credit card, but it has a fairly generous “free” tier.

Using {tidycensus}

census_api_key("your_key_here")

This loads the variables from the Decennial Census in 2010:

variables_dec <- load_variables(year = 2010, dataset = "sf1", cache = TRUE)

## # A tibble: 3,346 x 3
##    name    label                                concept         
##    <chr>   <chr>                                <chr>           
##  1 H001001 Total                                HOUSING UNITS   
##  2 H002001 Total                                URBAN AND RURAL 
##  3 H002002 Total!!Urban                         URBAN AND RURAL 
##  4 H002003 Total!!Urban!!Inside urbanized areas URBAN AND RURAL 
##  5 H002004 Total!!Urban!!Inside urban clusters  URBAN AND RURAL 
##  6 H002005 Total!!Rural                         URBAN AND RURAL 
##  7 H002006 Total!!Not defined for this file     URBAN AND RURAL 
##  8 H003001 Total                                OCCUPANCY STATUS
##  9 H003002 Total!!Occupied                      OCCUPANCY STATUS
## 10 H003003 Total!!Vacant                        OCCUPANCY STATUS
## # … with 3,336 more rows

This loads the ACS variables for 2017:

variables_acs <- load_variables(year = 2017, dataset = "acs5", cache = TRUE)

## # A tibble: 25,070 x 3
##    name       label                           concept                           
##    <chr>      <chr>                           <chr>                             
##  1 B00001_001 Estimate!!Total                 UNWEIGHTED SAMPLE COUNT OF THE PO…
##  2 B00002_001 Estimate!!Total                 UNWEIGHTED SAMPLE HOUSING UNITS   
##  3 B01001_001 Estimate!!Total                 SEX BY AGE                        
##  4 B01001_002 Estimate!!Total!!Male           SEX BY AGE                        
##  5 B01001_003 Estimate!!Total!!Male!!Under 5… SEX BY AGE                        
##  6 B01001_004 Estimate!!Total!!Male!!5 to 9 … SEX BY AGE                        
##  7 B01001_005 Estimate!!Total!!Male!!10 to 1… SEX BY AGE                        
##  8 B01001_006 Estimate!!Total!!Male!!15 to 1… SEX BY AGE                        
##  9 B01001_007 Estimate!!Total!!Male!!18 and … SEX BY AGE                        
## 10 B01001_008 Estimate!!Total!!Male!!20 years SEX BY AGE                        
## # … with 25,060 more rows
…
Query the total population of the continental U.S. states:

states <- get_decennial(geography = "state",
                        variables = c(total_pop = "P001001"),
                        geometry = TRUE,
                        output = "wide")

The states tibble contains the census data and the polygons for the geometries.

## Simple feature collection with 52 features and 3 fields
## geometry type:  MULTIPOLYGON
## dimension:      XY
## bbox:           xmin: -179 ymin: 17.9 xmax: 180 ymax: 71.4
## geographic CRS: NAD83
## # A tibble: 52 x 4
##    GEOID NAME       total_pop                                           geometry
##    <chr> <chr>          <dbl>                                 <MULTIPOLYGON [°]>
##  1 23    Maine        1328361 (((-67.6 44.5, -67.6 44.5, -67.6 44.5, -67.6 44.5…
##  2 25    Massachus…   6547629 (((-70.8 41.6, -70.8 41.6, -70.8 41.6, -70.8 41.6…
##  3 26    Michigan     9883640 (((-88.7 48.1, -88.7 48.1, -88.7 48.1, -88.7 48.1…
##  4 30    Montana       989415 (((-104 45, -104 45, -104 45, -104 45, -105 45, -…
##  5 32    Nevada       2700551 (((-114 37, -114 37, -114 36.8, -114 36.7, -114 3…
##  6 34    New Jersey   8791894 (((-75.5 39.7, -75.5 39.7, -75.5 39.7, -75.5 39.7…
##  7 36    New York    19378102 (((-71.9 41.3, -71.9 41.3, -71.9 41.3, -71.9 41.3…
##  8 37    North Car…   9535483 (((-82.6 36, -82.6 36, -82.6 36, -82.6 36, -82.6 …
##  9 39    Ohio        11536504 (((-82.8 41.7, -82.8 41.7, -82.8 41.7, -82.8 41.7…
## 10 42    Pennsylva…  12702379 (((-75.4 39.8, -75.4 39.8, -75.5 39.8, -75.5 39.8…
## # … with 42 more rows
…
