…
set_graph_style()

set.seed(1234)

Download data

This code downloads the data from 538’s GitHub repo and does some light munging.

read_csv("https://projects.fivethirtyeight.com/soccer-api/club/spi_global_rankings.csv", progress = FALSE) %>% 
  filter(league == "United Soccer League") %>% 
  mutate(name = str_replace(name, "Arizona United", "Phoenix Rising")) -> df

df

## # A tibble: 35 x 7
##     rank prev_rank name                   league                 off   def   spi
##    <dbl>     <dbl> <chr>                  <chr>                <dbl> <dbl> <dbl>
##  1   263       257 Phoenix Rising         United Soccer League  1.59  1.77  42.4
##  2   419       428 San Antonio FC         United Soccer League  1.17  1.82  32.0
##  3   460       475 Pittsburgh Riverhounds United Soccer League  0.98  1.69  29.7
##  4   465       454 Tampa Bay Rowdies      United Soccer League  0.96  1.67  29.7
##  5   478       482 Reno 1868 FC           United Soccer League  1.06  1.92  27.9
##  6   498       496 Indy Eleven            United Soccer League  0.81  1.66  26.2
##  7   505       489 Orange County SC       United Soccer League  0.86  1.76  25.8
##  8   520       518 Louisville City FC     United Soccer League  0.85  1.84  24.2
##  9   533       528 New Mexico United      United Soccer League  0.9   2.01  22.9
## 10   534       532 Sacramento Republic FC United Soccer League  0.75  1.79  22.9
## # … with 25 more rows
…
