…
future <- make_future_dataframe(m, periods = 365, freq = "day") %>% 
  mutate(floor = 0,
         cap = unique(df$cap))

This code performs the forecast on the future dataset.

forecast <- predict(m, future) %>% 
  as_tibble()

The output is a dataframe with the date, the predicted ridership, and the upper and lower bounds of the prediction.

forecast

## # A tibble: 1,883 x 66
##    ds                  trend   cap floor additive_terms additive_terms_…
##    <dttm>              <dbl> <dbl> <dbl>          <dbl>            <dbl>
##  1 2015-05-31 00:00:00  5.14  8.01     0          0.720            0.720
##  2 2015-06-01 00:00:00  5.14  8.01     0          0.657            0.657
##  3 2015-06-02 00:00:00  5.14  8.01     0          0.724            0.724
##  4 2015-06-03 00:00:00  5.14  8.01     0          0.765            0.765
##  5 2015-06-04 00:00:00  5.14  8.01     0          0.733            0.733
##  6 2015-06-05 00:00:00  5.14  8.01     0          0.784            0.784
##  7 2015-06-06 00:00:00  5.14  8.01     0          0.844            0.844
##  8 2015-06-07 00:00:00  5.14  8.01     0          0.754            0.754
##  9 2015-06-08 00:00:00  5.14  8.01     0          0.690            0.690
## 10 2015-06-09 00:00:00  5.14  8.01     0          0.755            0.755
## # … with 1,873 more rows, and 60 more variables: additive_terms_upper <dbl>,
## #   `Christmas Day` <dbl>, `Christmas Day_lower` <dbl>, `Christmas
## #   Day_upper` <dbl>, `Christmas Day (Observed)` <dbl>, `Christmas Day
## #   (Observed)_lower` <dbl>, `Christmas Day (Observed)_upper` <dbl>, `Columbus
## #   Day` <dbl>, `Columbus Day_lower` <dbl>, `Columbus Day_upper` <dbl>,
## #   holidays <dbl>, holidays_lower <dbl>, holidays_upper <dbl>, `Independence
## #   Day` <dbl>, `Independence Day_lower` <dbl>, `Independence Day_upper` <dbl>,
## #   `Independence Day (Observed)` <dbl>, `Independence Day
## #   (Observed)_lower` <dbl>, `Independence Day (Observed)_upper` <dbl>, `Labor
…
