…
This calculates the 99th percentile of bird count per observation, and highlights the birds that are seen in large flocks.

df %>% 
  group_by(common_name) %>% 
  summarize(observation_count_99 = quantile(observation_count, probs = c(.99), na.rm = TRUE)) %>% 
  arrange(desc(observation_count_99))

## # A tibble: 292 x 2
##    common_name       observation_count_99
##    <chr>                            <dbl>
##  1 Ring-billed Gull                 4437.
##  2 crow sp.                         2000 
##  3 gull sp.                          696.
##  4 Tundra Swan                       231.
##  5 European Starling                 200 
##  6 Herring Gull                      200 
##  7 Canada Goose                      148 
##  8 Common Nighthawk                  142.
##  9 blackbird sp.                     103.
## 10 Mallard                           101.
## # … with 282 more rows
…
Species counts

This does a basic count of the major species, not accounting for simultaneous observation:

df_counts <- df %>% 
  group_by(common_name) %>% 
  summarize(species_count = sum(observation_count, na.rm = TRUE)) %>% 
  arrange(desc(species_count))

df_counts

## # A tibble: 292 x 2
##    common_name       species_count
##    <chr>                     <dbl>
##  1 Ring-billed Gull         216490
##  2 European Starling        151465
##  3 American Crow            143783
##  4 Canada Goose             124268
##  5 American Robin           114062
##  6 Mallard                   78072
##  7 Northern Cardinal         68276
##  8 Mourning Dove             56251
##  9 Common Grackle            51649
## 10 Blue Jay                  49700
## # … with 282 more rows
…
This calculates the difference in correlation for each bird:

df_corr_diff <- df_slopegraph %>% 
  pivot_wider(names_from = item1, values_from = correlation, names_prefix = "corr_") %>% 
  clean_names() %>% 
  mutate(corr_diff = abs(corr_blue_jay - corr_northern_cardinal)) %>% 
  select(item2, corr_diff)

df_corr_diff

## # A tibble: 29 x 2
##    item2                   corr_diff
##    <chr>                       <dbl>
##  1 Tufted Titmouse            0.0258
##  2 Carolina Wren             NA     
##  3 Northern Cardinal         NA     
##  4 Red-bellied Woodpecker     0.0151
##  5 White-breasted Nuthatch    0.0143
##  6 Downy Woodpecker          NA     
##  7 Song Sparrow               0.121 
##  8 Northern Flicker           0.0245
##  9 Mourning Dove             NA     
## 10 Eastern Towhee            NA     
## # … with 19 more rows
…
