…
#read in pothole data
pothole_data <- read_csv("data/wprdc_311.csv") |> 
  clean_names() |> 
  filter(request_type == "Potholes") |> 
  mutate(created_yearmonth = yearmonth(created_on))

pothole_df <- pothole_data |> 
  group_by(created_yearmonth, request_type) |> 
  summarize(report_count = n()) |> 
  ungroup() |> 
  as_tsibble()

pothole_df

## # A tsibble: 93 x 3 [1M]
##    created_yearmonth request_type report_count
##                <mth> <chr>               <int>
##  1          2015 Apr Potholes              906
##  2          2015 May Potholes             1493
##  3          2015 Jun Potholes             1236
##  4          2015 Jul Potholes             1288
##  5          2015 Aug Potholes              734
##  6          2015 Sep Potholes              526
##  7          2015 Oct Potholes              516
##  8          2015 Nov Potholes              890
##  9          2015 Dec Potholes              309
## 10          2016 Jan Potholes              222
## # ℹ 83 more rows
…
<img src="{{< blogdown/postref >}}index.en_files/figure-html/unnamed-chunk-15-1.png" width="672" />
There is a positive relationship between the total precipitation in the current month and pothole reports.

Cross-validate models

Next I cross-validate models using various combinations of the weather data as exogenous variables. I also make benchmark models for comparison.

#cv
pothole_cv <- stretch_tsibble(pothole_df, .step = 1, .init = 24)

pothole_cv |> 
  count(.id)

## # A tibble: 70 × 2
##      .id     n
##    <int> <int>
##  1     1    24
##  2     2    25
##  3     3    26
##  4     4    27
##  5     5    28
##  6     6    29
##  7     7    30
##  8     8    31
##  9     9    32
## 10    10    33
## # ℹ 60 more rows
…
## 314.612 sec elapsed

The “exo_custom” models represent a naive guess at what combinations of weather variables are most related, based on the previous graphs. A more methodological meteorological approach would probably be much better.

I use new_data to generate 12 new future observations for each CV .id and make a forecast for each .id and .model.

horizon_data <- new_data(pothole_cv, 12) |> 
  left_join(pothole_df)

horizon_data

## # A tsibble: 840 x 24 [1M]
## # Key:       .id [70]
##    created_yearmonth   .id request_type report_count temp_avg temp_avg_lag1
##                <mth> <int> <chr>               <int>    <dbl>         <dbl>
##  1          2017 Apr     1 Potholes             1191    14.3           4.65
##  2          2017 May     1 Potholes             1088    15.8          14.3 
##  3          2017 Jun     1 Potholes              880    20.7          15.8 
##  4          2017 Jul     1 Potholes              801    22.9          20.7 
##  5          2017 Aug     1 Potholes              620    20.8          22.9 
##  6          2017 Sep     1 Potholes              369    18.9          20.8 
##  7          2017 Oct     1 Potholes              278    14.8          18.9 
##  8          2017 Nov     1 Potholes              207     5.82         14.8 
##  9          2017 Dec     1 Potholes              131    -1.24          5.82
## 10          2018 Jan     1 Potholes             1995    -3.45         -1.24
## # ℹ 830 more rows
## # ℹ 18 more variables: temp_avg_lag2 <dbl>, temp_avg_lag3 <dbl>,
## #   temp_min_avg <dbl>, temp_min_avg_lag1 <dbl>, temp_min_avg_lag2 <dbl>,
## #   temp_min_avg_lag3 <dbl>, temp_max_avg <dbl>, temp_max_avg_lag1 <dbl>,
## #   temp_max_avg_lag2 <dbl>, temp_max_avg_lag3 <dbl>, temp_diff <dbl>,
## #   temp_diff_lag1 <dbl>, temp_diff_lag2 <dbl>, temp_diff_lag3 <dbl>,
## #   prcp_sum <dbl>, prcp_sum_lag1 <dbl>, prcp_sum_lag2 <dbl>, …
…
