…
library(tidyverse)
library(ggrepel)

theme_set(theme_bw())

df <- read_csv("https://projects.fivethirtyeight.com/soccer-api/club/spi_global_rankings.csv", progress = FALSE) %>% 
  group_by(league) %>% 
  mutate(league_spi = median(spi)) %>% 
  ungroup() %>% 
  mutate(league = fct_reorder(league, league_spi))

df

## # A tibble: 633 x 8
##     rank prev_rank name           league              off   def   spi league_spi
##    <dbl>     <dbl> <chr>          <fct>             <dbl> <dbl> <dbl>      <dbl>
##  1     1         1 Bayern Munich  German Bundesliga  3.42 0.27   95.3       66.4
##  2     2         2 Manchester Ci… Barclays Premier…  3.09 0.24   94.2       71.2
##  3     3         3 Liverpool      Barclays Premier…  2.84 0.33   91.4       71.2
##  4     4         4 Barcelona      Spanish Primera …  2.88 0.43   90.1       70.2
##  5     5         5 Real Madrid    Spanish Primera …  2.52 0.32   89.2       70.2
##  6     6         6 Paris Saint-G… French Ligue 1     2.89 0.51   89.0       58.8
##  7     7         8 Atletico Madr… Spanish Primera …  2.28 0.35   86.3       70.2
##  8     8        10 Internazionale Italy Serie A      2.51 0.570  84.3       60.8
##  9     9         9 Chelsea        Barclays Premier…  2.44 0.54   84.2       71.2
## 10    10        12 RB Leipzig     German Bundesliga  2.45 0.55   84.1       66.4
## # … with 623 more rows
…
